{
	"cmd": "cpulimit",
	"sleeptime": 5000,
	"statusdots": false,
	"limits": [
		{
			"cmd": "node",
			"params": ["-l", "50", "-z"]
		},
		{
			"cmd": "code",
			"params": ["-l", "30", "-z"]
		},
		{
			"cmd": "java",
			"params": ["-l", "30", "-z"]
		},
		{
			"cmd": "skypeforlinux",
			"params": ["-l", "30", "-z"]
		}
	]
}
